{
  "cacheInstanceId": "FjO1IIwDpPl5bqsLQuUGVj0XXZgR9JPKLgtw4GvNgk3oFUS2l5jvK4PxaBLGC3zS",
  "configData": {
      "_recmdModels": {
          "items": []
      },
      "_mandatoryModels": {
          "items": []
      },
      "textField2": "",
      "textField1": "test",
      "boolean2": false,
      "links": [
          {
              "rel": "child",
              "href": "https://cpq-034.us.oracle.com/rest/v7/configtest1.productLine1.model1/_bom"
          },
          {
              "rel": "child",
              "href": "https://cpq-034.us.oracle.com/rest/v7/configtest1.productLine1.model1/_recmdModels"
          },
          {
              "rel": "child",
              "href": "https://cpq-034.us.oracle.com/rest/v7/configtest1.productLine1.model1/_mandatoryModels"
          },
          {
              "rel": "child",
              "href": "https://cpq-034.us.oracle.com/rest/v7/configtest1.productLine1.model1/_recmdParts"
          },
          {
              "rel": "child",
              "href": "https://cpq-034.us.oracle.com/rest/v7/configtest1.productLine1.model1/_mandatoryParts"
          },
          {
              "rel": "child",
              "href": "https://cpq-034.us.oracle.com/rest/v7/configtest1.productLine1.model1/_pickLists"
          },
          {
              "rel": "child",
              "href": "https://cpq-034.us.oracle.com/rest/v7/configtest1.productLine1.model1/_priceInfo"
          },
          {
              "rel": "child",
              "href": "https://cpq-034.us.oracle.com/rest/v7/configtest1.productLine1.model1/_setset1"
          },
          {
              "rel": "child",
              "href": "https://cpq-034.us.oracle.com/rest/v7/configtest1.productLine1.model1/_setset2"
          }
      ],
      "boolean1": false,
      "_mandatoryParts": {
          "items": []
      },
      "_priceInfo": {
          "items": [
              {
                  "category": {
                      "code": "GENERAL",
                      "displayName": "Price"
                  },
                  "_others": [
                      {
                          "name": "Total Configured Price of Model",
                          "variableName": "_totalConfiguredPrice",
                          "price": {
                              "value": 0,
                              "currency": "USD"
                          }
                      }
                  ]
              }
          ],
          "name": "Price"
      },
      "dateField2": null,
      "floatField2": null,
      "dateField1": null,
      "floatMSM2": {
          "items": [
              {
                  "value": null,
                  "displayValue": ""
              }
          ]
      },
      "currencyField1": null,
      "floatMSM1": {
          "items": [
              {
                  "value": null,
                  "displayValue": ""
              }
          ]
      },
      "floatField1": null,
      "currencyField2": null,
      "floatSSM1": {
          "value": null,
          "displayValue": ""
      },
      "floatSSM2": {
          "value": null,
          "displayValue": ""
      },
      "integerField1": null,
      "integerField2": null,
      "_bom": {
          "items": []
      },
      "integerMSM1": {
          "items": [
              {
                  "value": null,
                  "displayValue": ""
              }
          ]
      },
      "textMSM2": {
          "items": [
              {
                  "value": null,
                  "displayValue": ""
              }
          ]
      },
      "condition1": false,
      "integerMSM2": {
          "items": [
              {
                  "value": null,
                  "displayValue": ""
              }
          ]
      },
      "condition2": false,
      "_state": {
          "updatable": true,
          "hasError": false,
          "hasWarning": false,
          "messages": [],
          "actions": {
              "_update": {
                  "enabled": true,
                  "visible": true
              },
              "_integration_addToCart": {
                  "enabled": true,
                  "visible": false
              },
              "_next": {
                  "enabled": true,
                  "visible": true
              },
              "_previous": {
                  "enabled": true,
                  "visible": false
              }
          },
          "attributes": {
              "textField1": {
                  "updatable": true,
                  "hasError": false,
                  "hasWarning": false,
                  "messages": [],
                  "visible": true,
                  "hasConstraintViolation": false,
                  "recommendationMessages": []
              }
          }
      },
      "condition3": false,
      "condition4": false,
      "textMSM1": {
          "items": [
              {
                  "value": null,
                  "displayValue": ""
              }
          ]
      },
      "textSSM1": {
          "value": "",
          "displayValue": ""
      },
      "_isMainModelSelected": true,
      "textSSM2": {
          "value": "",
          "displayValue": ""
      },
      "integerSSM2": {
          "value": null,
          "displayValue": ""
      },
      "integerSSM1": {
          "value": null,
          "displayValue": ""
      },
      "_recmdParts": {
          "items": []
      }
  },
  "systemCurrentDate": "2019-06-24",
  "_flow": {
      "flow": "flow1",
      "productFamily": "test1",
      "links": [
          {
              "rel": "self",
              "href": "https://cpq-034.us.oracle.com/rest/v7/productFamilies/test1/layouts/flow1"
          }
      ]
  }
}