{
  "internalServerError": "Internal Server Error.",
  "invalidProductInput": "productFamily, productLine and model must be supplied.",
  "cacheInstanceIdRequiredForPage": "cacheInstanceId is required for next/previous action.",
  "pageOpRequired": "next/previous action op is required for page action.",
  "invalidPageOp": "Page operation is not valid.",
  "cacheInstanceIdRequiredForAction": "cacheInstanceId is required for action.",
  "arraySetVarNameRequiredForAction": "arraySetVarName is required for action.",
  "missingStateAttributes": "configData._state.attributes must be supplied.",
  "layoutCacheNotFound": "layoutCache could not be found.",
  "removeIndexNotFound": "removeIndex must be supplied.",
  "invalidExpandParameters": "Invalid expand parameters",
  "arraySetVarNamesNotFound": "arraySetVarNames must be supplied.",
  "flowRequired": "flow is required.",
  "hierLevelNotFound": "hierLevel must be supplied.",
  "pickListVarNameRequired": "pickListVarName is required.",
  "uiSettingsNotFound": "uiSettings could not be found.",
  "templatesNotFound": "templates could not be found."
}